# compile vhdl design source files
vhdl xil_defaultlib  \
"../../../../trabajo_vhdl.srcs/sources_1/new/Contador.vhd" \
"../../../../trabajo_vhdl.srcs/sources_1/new/edge.vhd" \
"../../../../trabajo_vhdl.srcs/sources_1/new/edge_array.vhd" \
"../../../../trabajo_vhdl.srcs/sources_1/new/fsm.vhd" \
"../../../../trabajo_vhdl.srcs/sources_1/new/sinc.vhd" \
"../../../../trabajo_vhdl.srcs/sources_1/new/sinc_array.vhd" \
"../../../../trabajo_vhdl.srcs/sources_1/new/top_maquina_refrescos.vhd" \
"../../../../trabajo_vhdl.srcs/sim_1/new/top_tb.vhd" \

# Do not sort compile order
nosort
